{
    "apps": [
        {
            "name": "raspiserver",
            "script": "./app.js",
            "watch": true,
            "env": {
                "NODE_ENV": "production"
            },
            "instances": "max",
            "exec_mode": "cluster"
        }
    ]
}